STAT 210 Lab 5: Student Evaluations of Teaching
…
2. Load in the teacher_evals data.

# code chunk for importing the data
teacher_evals <- read_csv("dataraw/teacher_evals.csv")

Data Inspection + Summary

3. Provide a brief overview (~4 sentences) of the dataset.

# you may want to use code to answer this question
(teacher_evals)

# A tibble: 8,015 × 22
   course_id  teacher_id question_no no_participants resp_share SET_score_avg
   <chr>           <dbl>       <dbl>           <dbl>      <dbl>         <dbl>
 1 0000-BHP        54655         901             255     0.212           4.22
 2 0000-BHP        54655         903             255     0.208           3.68
 3 0000-BHP        54655         904             255     0.212           3.74
 4 0000-BHP        54655         905             255     0.208           3.30
 5 0000-BHP        54655         907             255     0.208           3.68
 6 0000-BW-NP       3432         902             998     0.0411          4.05
 7 0000-BW-NP       3432         903             998     0.0421          3.95
 8 0000-BW-NP       3432         906             998     0.0411          4.15
 9 0000-BW-NP       3432         909             998     0.0411          4.07
10 0000-BW-NP       3773         901            1003     0.0538          4.06
# ℹ 8,005 more rows
# ℹ 16 more variables: stud_grade_avg <dbl>, stud_grade_std <dbl>,
#   stud_grade_var_coef <dbl>, percent_failed <dbl>, stud_grade_avg_cur <dbl>,
#   stud_grade_std_cur <dbl>, stud_grade_var_coef_cur <dbl>,
#   percent_failed_cur <dbl>, class_duration <dbl>, weekday <chr>,
#   time_of_day <chr>, SET_score_1sem <dbl>, maximum_score <dbl>,
#   academic_degree <chr>, seniority <dbl>, gender <chr>

The data set analyses teacher evaluations made by their students based on a regimen. Evaluation data is classified into several different columns, including teacher ID and course number. Gender is the only demographic included in this data set, but it includes their maximum degree earned. The data set is not the most organized since its a little difficult to read, specially certain scores.

4. What is the unit of observation (i.e. a single row in the dataset) identified by?

# you may want to use code to answer this question
teacher_evals %>%
  count(teacher_id,
        course_id
      ) %>%
  filter(n > 1)

# A tibble: 1,282 × 3
   teacher_id course_id          n
        <dbl> <chr>          <int>
 1       3432 0000-BW-NP         4
 2       3432 0000-BW-SP         4
 3       3432 0000-IM-SE         8
 4       3432 0000-Library       7
 5       3432 0000-Sz.Bib        3
 6       3460 CII7SP26CI-Z17     7
 7       3471 PAB5SE12PA-Z19     8
 8       3471 PAM1SP03PA-Z20     5
 9       3477 CII3NP07-PDW       5
10       3477 CII3SE07-PDW       4
# ℹ 1,272 more rows
…
write_csv(teacher_evals_clean, "dataclean/teacher_evals_clean.csv")
teacher_evals_clean

# A tibble: 6,817 × 10
   course_id  teacher_id question_no no_participants resp_share SET_score_avg
   <chr>      <chr>            <dbl>           <dbl>      <dbl>         <dbl>
 1 0000-BHP   54655              901             255     0.212           4.22
 2 0000-BHP   54655              903             255     0.208           3.68
 3 0000-BHP   54655              904             255     0.212           3.74
 4 0000-BHP   54655              905             255     0.208           3.30
 5 0000-BHP   54655              907             255     0.208           3.68
 6 0000-BW-NP 3432               902             998     0.0411          4.05
 7 0000-BW-NP 3432               903             998     0.0421          3.95
 8 0000-BW-NP 3432               906             998     0.0411          4.15
 9 0000-BW-NP 3432               909             998     0.0411          4.07
10 0000-BW-NP 3773               901            1003     0.0538          4.06
# ℹ 6,807 more rows
# ℹ 4 more variables: percent_failed_cur <dbl>, academic_degree <chr>,
#   seniority <dbl>, sex <chr>
…
# A tibble: 0 × 10
# ℹ 10 variables: course_id <chr>, teacher_id <chr>, question_no <dbl>,
#   no_participants <dbl>, resp_share <dbl>, SET_score_avg <dbl>,
#   percent_failed_cur <dbl>, academic_degree <chr>, seniority <dbl>, sex <chr>

11. Which instructors with one year of experience had the highest and lowest average percentage of students failing in the current semester across all their courses?

# code chunk for Q10
teacher_evals_clean %>%
  filter(seniority == 1) %>%
  group_by(teacher_id) %>%
  summarise(avg_fail_pct = mean(percent_failed_cur, na.rm = TRUE)) %>%
  arrange(avg_fail_pct)

# A tibble: 33 × 2
   teacher_id avg_fail_pct
   <chr>             <dbl>
 1 102379           0     
 2 103092           0     
 3 106126           0     
 4 86222            0     
 5 98650            0     
 6 98651            0     
 7 105217           0.025 
 8 84689            0.0408
 9 80974            0.0556
10 98652            0.0662
# ℹ 23 more rows

Teachers 102379, 102379, 106126, 86222, 98650, and 98651 had the lowest average percentage of 0.0% failing students, while Teacher 106692 had the highest average percentage of 68% failing students.

12. Which female instructors with either a doctorate or professional degree had the highest and lowest average percent of students responding to the evaluation across all their courses?

# code chunk for Q11
teacher_evals_clean %>%
  filter(sex == "female") %>%
  filter(academic_degree %in% c("dr", "prof")) %>%
  group_by(teacher_id, academic_degree) %>%
  summarise(avg_resp = mean(resp_share, na.rm = TRUE)) %>%
  arrange(desc(avg_resp))

# A tibble: 74 × 3
# Groups:   teacher_id [74]
   teacher_id academic_degree avg_resp
   <chr>      <chr>              <dbl>
 1 101508     dr                 0.522
 2 66292      dr                 0.345
 3 66289      dr                 0.256
 4 76408      dr                 0.25 
 5 60947      dr                 0.221
 6 66291      dr                 0.200
 7 62909      dr                 0.185
 8 76394      dr                 0.182
 9 66281      dr                 0.173
10 102728     dr                 0.167
# ℹ 64 more rows
…
